{
  "cars": [
    {
      "name": "Lambo",
      "year": 2003,
      "id": 1
    },
    {
      "name": "Ford",
      "year": 1998,
      "id": 2
    },
    {
      "name": "Lada",
      "year": 2000,
      "id": 3
    },
    {
      "name": "Ferrari",
      "year": 2019,
      "id": 4
    },
    {
      "name": "AAAA",
      "year": 2003,
      "id": 5
    }
  ]
}